…
base_url = "https://www.amazon.com/product-reviews/B00005JNBQ/ref=cm_cr_arp_d_viewopt_rvwer?ie=UTF8&reviewerType=avp_only_reviews&sortBy=recent&pageNumber="

urls = str_c(base_url, 1:5)

bind_rows(
  get_page_reviews(urls[1]),
  get_page_reviews(urls[2]),
  get_page_reviews(urls[3]),
  get_page_reviews(urls[4]),
  get_page_reviews(urls[5]))
```

    ## # A tibble: 50 x 3
    ##    title                                                 stars text             
    ##    <chr>                                                 <dbl> <chr>            
    ##  1 Good movie                                                5 Weird story, goo~
    ##  2 I Just everyone to know this....                          5 VOTE FOR PEDRO !~
    ##  3 the cobweb in his hair during the bike ramp scene lol     5 5 stars for bein~
    ##  4 Best quirky movie ever                                    5 You all know the~
    ##  5 Classic Film                                              5 Had to order thi~
    ##  6 hehehehe                                                  5 goodjobboys      
    ##  7 Painful                                                   1 I think I sneeze~
    ##  8 GRAND                                                     5 GRAND            
    ##  9 Hello, 90s                                                5 So nostalgic mov~
    ## 10 Cult Classic                                              5 Watched it with ~
    ## # ... with 40 more rows
…
